NAME: kroB100
TYPE: TSP
OPTIMAL: 22141
DIMENSION: 100
EDGE_WEIGHT_FORMAT: FULL_MATRIX
0 2607 549 2009 1368 2233 1131 581 515 582 722 263 2790 2301 2490 2439 2949 2589 3008 783 258 1980 1988 2459 527 1184 662 814 492 881 3070 440 2433 838 844 2910 1129 699 1124 1100 3099 2517 1673 3350 2851 477 1488 2963 655 1989 3164 1417 1003 1437 2040 1299 1008 1177 592 1414 810 1258 2953 2359 1227 1535 1427 652 1034 1192 439 1045 839 1359 940 674 2349 2796 1316 822 1472 2579 2065 1156 773 629 1628 1867 1719 149 792 3020 765 966 96 2883 737 229 618 1249 
2607 0 3154 1013 3183 932 1480 3056 2097 2886 3328 2435 184 412 882 236 511 523 882 2274 2578 1244 1287 608 2091 2701 1988 3367 2958 2437 554 2798 707 1769 2032 604 1804 2291 3318 3187 665 217 936 1093 531 2148 2040 505 2547 673 941 1228 3355 1296 888 2637 1620 1445 2907 1254 1977 2881 394 465 2070 1434 3389 2826 2696 3425 2248 1802 3362 1348 2441 3046 489 259 2231 2280 2318 457 800 1457 3322 2544 1118 1283 907 2512 3326 831 3370 1717 2694 742 3188 2621 3075 2661 
549 3154 0 2515 1413 2739 1679 369 1064 665 190 739 3337 2841 2996 2987 3497 3135 3548 1203 661 2497 2500 3003 1074 1417 1186 344 385 1225 3609 528 2952 1386 1292 3456 1628 1128 1021 1077 3646 3059 2221 3891 3397 1022 1909 3500 974 2537 3684 1965 811 1978 2579 1560 1546 1725 570 1946 1287 1423 3496 2894 1656 2018 1383 792 1264 1040 936 1555 497 1882 1277 525 2897 3344 1699 1233 1830 3112 2588 1704 410 953 2151 2384 2261 664 359 3562 242 1485 460 3425 451 571 403 1499 
2009 1013 2515 0 2976 224 1079 2325 1572 2449 2703 1778 1161 605 481 1029 1521 1390 1843 1991 2076 1622 1667 1375 1581 2538 1349 2652 2235 2191 1231 2063 465 1272 1244 1592 1660 1969 2967 2871 1678 811 792 2097 1515 1642 2096 1107 2200 944 1180 1047 2933 1226 1307 2532 1039 1105 2138 652 1231 2710 1180 559 2000 520 3142 2432 2476 3063 1582 1598 2841 667 2219 2276 1183 1272 2191 2014 2336 706 221 1077 2780 2187 420 1584 583 1963 2600 1806 2753 1046 2077 1692 2432 1945 2333 2532 
1368 3183 1413 2976 0 3180 1899 1742 1500 805 1386 1599 3344 3024 3411 2959 3335 2934 3209 986 1131 2084 2060 2781 1479 484 1791 1733 1706 786 3727 1752 3295 1729 2096 3236 1388 1013 465 346 3448 3183 2336 3534 3202 1427 1223 3649 817 2512 3977 2017 699 1900 2350 578 1971 1882 1876 2325 2021 306 3575 3121 1118 2625 229 716 503 531 1702 1413 1029 2330 764 1892 2764 3280 985 962 969 3340 2941 1903 1091 837 2556 1995 2487 1283 1764 3251 1368 2031 1394 3134 1857 1592 1783 537 
2233 932 2739 224 3180 0 1282 2545 1793 2668 2927 2002 1055 554 258 998 1442 1369 1799 2196 2298 1721 1767 1380 1801 2736 1572 2873 2457 2394 1059 2284 278 1488 1465 1532 1845 2178 3183 3084 1591 717 935 2025 1457 1862 2261 933 2412 1016 962 1218 3152 1387 1383 2723 1258 1301 2356 864 1454 2910 1030 469 2181 736 3351 2649 2679 3280 1806 1790 3064 886 2420 2493 1192 1187 2370 2218 2510 552 275 1278 3004 2400 631 1696 735 2185 2820 1754 2976 1269 2301 1652 2650 2168 2553 2726 
1131 1480 1679 1079 1899 1282 0 1620 618 1437 1850 984 1663 1203 1516 1308 1824 1479 1921 914 1104 1053 1081 1360 611 1461 568 1914 1520 1113 1964 1374 1413 294 774 1795 618 899 1921 1812 1977 1405 544 2258 1732 669 1113 1864 1141 862 2123 313 1918 425 979 1462 266 82 1505 434 676 1632 1837 1278 959 810 2071 1397 1397 2022 814 537 1891 467 1140 1638 1232 1665 1150 936 1311 1503 1049 31 1846 1132 660 954 622 1032 1879 1925 1892 425 1220 1786 1764 1171 1644 1457 
581 3056 369 2325 1742 2545 1620 0 1043 953 517 636 3240 2714 2802 2911 3439 3098 3535 1355 801 2544 2554 2977 1062 1679 1070 328 100 1426 3476 263 2778 1329 1081 3415 1706 1271 1376 1417 3594 2940 2144 3874 3351 1025 2064 3362 1181 2479 3504 1926 1175 1974 2574 1811 1437 1679 222 1813 1104 1713 3375 2753 1804 1811 1733 1069 1524 1403 812 1618 867 1733 1483 157 2851 3265 1881 1391 2030 2963 2425 1648 779 1157 1995 2431 2150 730 275 3542 569 1344 490 3403 157 451 42 1754 
515 2097 1064 1572 1500 1793 618 1043 0 877 1233 420 2280 1805 2044 1925 2434 2076 2500 596 507 1507 1520 1948 30 1157 294 1316 944 784 2572 822 1968 330 621 2396 716 529 1407 1328 2584 2015 1161 2841 2336 74 1173 2468 683 1473 2695 903 1360 933 1535 1220 535 661 970 941 532 1292 2450 1870 927 1150 1628 871 1041 1499 329 613 1289 906 835 1090 1835 2282 1074 636 1249 2093 1599 642 1238 664 1168 1395 1220 416 1286 2510 1274 547 607 2373 1195 594 1073 1190 
582 2886 665 2449 805 2668 1437 953 877 0 709 834 3064 2638 2918 2689 3153 2766 3133 669 389 2023 2017 2622 868 753 1133 1007 907 615 3393 947 2834 1185 1388 3087 1159 621 551 518 3290 2834 1961 3475 3037 806 1317 3297 386 2225 3555 1659 485 1611 2180 898 1410 1453 1072 1810 1333 763 3260 2715 1084 2019 846 129 601 631 975 1119 515 1782 657 1097 2550 3039 1085 685 1195 2939 2465 1453 511 376 2040 1914 2059 534 1024 3158 716 1419 594 3026 1081 797 994 836 
722 3328 190 2703 1386 2927 1850 517 1233 709 0 926 3511 3021 3184 3158 3662 3295 3700 1312 796 2633 2634 3161 1241 1454 1370 356 554 1307 3790 709 3139 1559 1481 3617 1760 1242 959 1042 3809 3238 2394 4044 3560 1187 2004 3682 1060 2704 3870 2130 731 2134 2732 1602 1726 1893 733 2129 1476 1436 3674 3076 1758 2208 1326 838 1306 959 1123 1694 389 2067 1355 664 3060 3514 1783 1338 1902 3295 2774 1875 308 1042 2336 2521 2440 824 400 3717 54 1670 638 3581 554 760 542 1540 
263 2435 739 1778 1599 2002 984 636 420 834 926 0 2619 2109 2259 2282 2806 2462 2899 884 468 1927 1940 2341 444 1364 451 934 537 1025 2876 403 2213 692 584 2780 1124 800 1382 1349 2960 2330 1514 3238 2716 421 1548 2766 833 1845 2945 1289 1266 1341 1940 1462 816 1043 550 1210 558 1460 2767 2158 1291 1290 1674 890 1222 1452 197 1026 1092 1143 1083 672 2216 2638 1410 925 1578 2375 1849 1013 1022 807 1412 1815 1534 316 896 2905 975 746 305 2767 784 187 663 1418 
2790 184 3337 1161 3344 1055 1663 3240 2280 3064 3511 2619 0 573 965 386 410 564 828 2446 2760 1367 1407 683 2274 2861 2172 3551 3142 2606 431 2981 805 1952 2213 540 1972 2466 3490 3357 544 349 1119 989 478 2331 2186 422 2721 844 882 1406 3531 1468 1023 2793 1804 1627 3090 1436 2159 3042 265 602 2229 1602 3553 3003 2861 3597 2432 1974 3543 1529 2608 3229 607 170 2385 2451 2465 529 955 1639 3503 2719 1294 1416 1090 2694 3510 767 3554 1900 2877 705 3372 2805 3258 2819 
2301 412 2841 605 3024 554 1203 2714 1805 2638 3021 2109 573 0 585 444 917 816 1250 2070 2304 1283 1330 835 1804 2552 1658 3032 2617 2251 769 2452 401 1475 1663 990 1638 2074 3106 2987 1074 232 691 1493 914 1864 1964 663 2326 581 955 1009 3118 1129 921 2510 1295 1187 2552 901 1617 2732 662 121 1943 1030 3217 2593 2524 3211 1916 1612 3091 983 2264 2692 652 670 2120 2083 2234 318 389 1186 3043 2319 733 1285 585 2220 2987 1208 3066 1370 2383 1100 2839 2291 2729 2524 
2490 882 2996 481 3411 258 1516 2802 2044 2918 3184 2259 965 585 0 1006 1372 1373 1764 2429 2550 1847 1894 1412 2051 2960 1828 3130 2714 2625 875 2541 186 1734 1722 1483 2058 2415 3427 3325 1509 669 1122 1954 1412 2113 2451 752 2653 1135 711 1422 3402 1581 1492 2940 1509 1529 2611 1109 1711 3135 880 469 2388 991 3587 2895 2908 3526 2064 2010 3319 1139 2649 2748 1235 1118 2576 2450 2708 436 471 1509 3260 2642 878 1836 937 2440 3077 1711 3234 1525 2558 1624 2905 2426 2809 2945 
2439 236 2987 1029 2959 998 1308 2911 1925 2689 3158 2282 386 444 1006 0 544 372 815 2064 2394 1009 1052 411 1917 2476 1841 3216 2812 2221 789 2656 821 1602 1918 576 1587 2086 3107 2973 706 362 768 1085 500 1972 1806 740 2341 464 1167 1036 3152 1085 652 2409 1475 1265 2773 1138 1854 2656 627 543 1844 1381 3168 2624 2476 3214 2099 1591 3173 1241 2223 2911 260 357 2001 2068 2085 621 808 1283 3137 2340 1040 1047 785 2336 3177 780 3198 1585 2528 663 3048 2469 2932 2434 
2949 511 3497 1521 3335 1442 1824 3439 2434 3153 3662 2806 410 917 1372 544 0 401 434 2504 2884 1268 1300 554 2423 2853 2371 3738 3339 2641 744 3187 1206 2118 2461 160 2012 2537 3532 3390 162 725 1296 584 144 2475 2131 784 2789 961 1238 1532 3600 1544 990 2766 2008 1773 3308 1682 2394 3030 604 976 2221 1916 3554 3077 2875 3641 2628 2036 3651 1785 2634 3445 605 256 2354 2502 2407 936 1305 1797 3620 2791 1582 1345 1329 2838 3701 366 3700 2124 3040 341 3579 2993 3461 2800 
2589 523 3135 1390 2934 1369 1479 3098 2076 2766 3295 2462 564 816 1373 372 401 0 475 2112 2510 871 905 153 2063 2452 2039 3389 2999 2244 991 2852 1190 1770 2165 323 1618 2148 3135 2992 524 712 980 789 272 2113 1731 985 2398 630 1441 1175 3208 1164 592 2365 1686 1420 2980 1402 2089 2629 827 914 1820 1700 3153 2687 2475 3244 2292 1647 3268 1512 2236 3115 253 419 1953 2108 2008 970 1169 1450 3241 2400 1348 945 1060 2472 3356 459 3332 1815 2682 325 3243 2649 3123 2399 
3008 882 3548 1843 3209 1799 1921 3535 2500 3133 3700 2899 828 1250 1764 815 434 475 0 2466 2907 1133 1152 564 2484 2736 2487 3816 3435 2575 1176 3294 1589 2207 2630 288 1974 2512 3457 3307 389 1098 1445 344 354 2531 1986 1218 2754 1096 1672 1611 3552 1570 968 2631 2142 1857 3426 1874 2551 2905 1038 1332 2122 2173 3434 3043 2781 3566 2735 2020 3643 1984 2559 3559 724 660 2227 2457 2249 1335 1622 1891 3623 2760 1822 1233 1535 2883 3786 74 3734 2277 3102 152 3682 3083 3561 2673 
783 2274 1203 1991 986 2196 914 1355 596 669 1312 884 2446 2070 2429 2064 2504 2112 2466 0 558 1354 1348 1965 568 576 882 1532 1272 205 2801 1217 2319 755 1215 2431 495 85 1044 918 2636 2246 1379 2808 2384 536 712 2714 288 1602 3015 1062 1096 979 1522 625 995 902 1372 1339 1123 732 2658 2160 454 1652 1158 577 488 1151 890 473 1184 1347 246 1457 1905 2407 534 42 696 2383 1960 920 1173 294 1571 1244 1514 635 1527 2494 1333 1074 867 2363 1509 985 1394 599 
258 2578 661 2076 1131 2298 1104 801 507 389 796 468 2760 2304 2550 2394 2884 2510 2907 558 0 1839 1841 2372 503 926 746 979 723 631 3067 694 2475 831 1001 2832 967 477 939 889 3028 2509 1643 3250 2777 442 1269 2966 398 1934 3202 1359 862 1345 1940 1041 1042 1133 843 1448 944 1004 2941 2373 1011 1635 1211 424 777 1020 589 898 787 1411 689 913 2279 2750 1081 592 1231 2596 2105 1124 743 372 1674 1726 1719 153 971 2925 828 1038 323 2789 953 486 841 991 
1980 1244 2497 1622 2084 1721 1053 2544 1507 2023 2633 1927 1367 1283 1847 1009 1268 871 1133 1354 1839 0 47 719 1485 1607 1587 2794 2447 1448 1791 2329 1671 1281 1827 1157 875 1408 2325 2174 1369 1335 857 1468 1129 1519 866 1749 1639 712 2167 776 2426 629 366 1508 1318 972 2476 1250 1728 1779 1626 1404 990 1668 2307 1926 1648 2434 1798 942 2538 1352 1429 2598 761 1261 1099 1340 1140 1570 1450 1023 2524 1647 1346 113 1060 1842 2773 1170 2662 1476 2076 1050 2698 2100 2576 1547 
1988 1287 2500 1667 2060 1767 1081 2554 1520 2017 2634 1940 1407 1330 1894 1052 1300 905 1152 1348 1841 47 0 754 1497 1585 1607 2800 2458 1436 1833 2342 1718 1301 1854 1186 875 1405 2309 2157 1397 1380 900 1484 1160 1530 840 1792 1632 759 2212 809 2414 656 412 1484 1346 999 2490 1288 1754 1755 1668 1451 973 1707 2284 1918 1630 2418 1815 946 2532 1389 1415 2610 802 1300 1076 1333 1111 1616 1497 1051 2520 1641 1388 128 1104 1849 2780 1191 2662 1504 2084 1074 2709 2111 2587 1524 
2459 608 3003 1375 2781 1380 1360 2977 1948 2622 3161 2341 683 835 1412 411 554 153 564 1965 2372 719 754 0 1934 2299 1925 3263 2877 2094 1115 2734 1226 1648 2067 466 1471 2002 2985 2841 673 772 884 898 423 1982 1578 1096 2252 537 1546 1051 3060 1027 443 2212 1578 1298 2865 1319 1988 2476 949 944 1667 1643 3000 2540 2323 3094 2175 1502 3126 1430 2085 2999 192 554 1800 1961 1855 1032 1158 1331 3100 2254 1287 792 989 2340 3231 565 3196 1713 2553 426 3123 2526 3003 2246 
527 2091 1074 1581 1479 1801 611 1062 30 868 1241 444 2274 1804 2051 1917 2423 2063 2484 568 503 1485 1497 1934 0 1131 319 1332 964 758 2569 845 1973 328 648 2384 688 502 1394 1312 2572 2012 1155 2826 2324 62 1144 2467 663 1463 2699 891 1352 916 1518 1192 542 652 994 946 558 1268 2446 1870 897 1165 1609 857 1017 1487 359 586 1288 915 808 1113 1823 2274 1044 608 1219 2094 1603 635 1239 644 1174 1373 1219 421 1303 2495 1282 562 620 2358 1215 615 1093 1163 
1184 2701 1417 2538 484 2736 1461 1679 1157 753 1454 1364 2861 2552 2960 2476 2853 2452 2736 576 926 1607 1585 2299 1131 0 1449 1760 1618 375 3246 1616 2836 1329 1776 2755 914 630 766 606 2967 2706 1867 3065 2720 1090 756 3171 532 2032 3506 1550 934 1424 1867 152 1568 1435 1760 1893 1689 181 3094 2651 635 2224 702 625 155 868 1418 950 1179 1910 331 1811 2280 2797 509 543 531 2869 2488 1461 1211 558 2120 1515 2028 1061 1775 2776 1454 1650 1241 2657 1818 1412 1720 88 
662 1988 1186 1349 1791 1572 568 1070 294 1133 1370 451 2172 1658 1828 1841 2371 2039 2487 882 746 1587 1607 1925 319 1449 0 1380 972 1075 2426 816 1772 306 337 2352 903 819 1676 1607 2527 1880 1075 2822 2287 365 1398 2316 975 1414 2504 881 1608 968 1545 1507 368 638 940 760 241 1586 2317 1708 1168 889 1913 1144 1335 1763 260 795 1493 698 1125 1076 1789 2195 1331 921 1507 1926 1405 598 1432 954 967 1480 1084 619 1338 2489 1417 304 734 2351 1208 634 1091 1480 
814 3367 344 2652 1733 2873 1914 328 1316 1007 356 934 3551 3032 3130 3216 3738 3389 3816 1532 979 2794 2800 3263 1332 1760 1380 0 417 1566 3797 589 3104 1621 1408 3708 1935 1454 1314 1390 3891 3257 2447 4157 3646 1288 2242 3683 1314 2777 3831 2214 1087 2247 2850 1903 1747 1969 535 2131 1428 1761 3693 3074 1987 2139 1680 1135 1607 1315 1120 1855 744 2054 1619 418 3145 3571 2038 1564 2171 3286 2750 1942 663 1293 2318 2680 2463 952 64 3826 389 1662 718 3688 264 747 326 1842 
492 2958 385 2235 1706 2457 1520 100 944 907 554 537 3142 2617 2714 2812 3339 2999 3435 1272 723 2447 2458 2877 964 1618 972 417 0 1353 3381 173 2687 1229 992 3315 1613 1188 1359 1389 3494 2843 2045 3774 3252 928 1979 3267 1111 2380 3414 1826 1169 1875 2475 1746 1339 1580 187 1716 1011 1661 3279 2658 1719 1724 1709 1018 1463 1393 712 1523 877 1638 1410 193 2752 3166 1802 1309 1954 2869 2332 1549 790 1086 1901 2334 2052 642 369 3442 608 1247 405 3304 251 352 129 1691 
881 2437 1225 2191 786 2394 1113 1426 784 615 1307 1025 2606 2251 2625 2221 2641 2244 2575 205 631 1448 1436 2094 758 375 1075 1566 1353 0 2971 1321 2511 959 1405 2559 635 256 892 752 2767 2420 1560 2914 2516 719 702 2888 252 1764 3200 1241 978 1141 1652 442 1200 1096 1473 1541 1315 527 2825 2344 475 1857 968 498 285 1000 1058 639 1121 1550 59 1543 2048 2557 475 176 607 2565 2155 1117 1125 273 1771 1343 1704 743 1568 2607 1321 1277 954 2480 1576 1100 1467 407 
3070 554 3609 1231 3727 1059 1964 3476 2572 3393 3790 2876 431 769 875 789 744 991 1176 2801 3067 1791 1833 1115 2569 3246 2426 3797 3381 2971 0 3214 781 2242 2413 900 2342 2813 3844 3718 815 559 1433 1242 856 2629 2593 125 3067 1214 499 1742 3869 1831 1440 3187 2064 1941 3309 1667 2375 3427 166 724 2619 1734 3930 3342 3235 3950 2683 2333 3854 1743 2978 3449 1031 576 2782 2810 2872 527 1071 1945 3808 3063 1483 1834 1352 2987 3750 1106 3835 2135 3152 1080 3598 3058 3491 3209 
440 2798 528 2063 1752 2284 1374 263 822 947 709 403 2981 2452 2541 2656 3187 2852 3294 1217 694 2329 2342 2734 845 1616 816 589 173 1321 3214 0 2516 1087 819 3167 1516 1132 1439 1451 3343 2679 1891 3632 3102 817 1912 3099 1092 2230 3242 1684 1266 1743 2339 1735 1181 1437 156 1552 841 1677 3114 2490 1652 1551 1777 1045 1463 1484 560 1421 1000 1471 1380 269 2604 3009 1751 1256 1910 2700 2162 1404 915 1066 1733 2217 1891 583 538 3299 763 1083 375 3161 392 238 277 1683 
2433 707 2952 465 3295 278 1413 2778 1968 2834 3139 2213 805 401 186 821 1206 1190 1589 2319 2475 1671 1718 1226 1973 2836 1772 3104 2687 2511 781 2516 0 1650 1699 1311 1928 2311 3333 3225 1349 491 979 1790 1238 2035 2302 656 2554 961 732 1289 3319 1438 1314 2809 1435 1417 2596 1027 1677 3014 756 284 2252 983 3477 2805 2792 3433 2016 1886 3253 1074 2532 2734 1049 951 2436 2338 2563 283 370 1403 3197 2544 805 1665 809 2373 3054 1538 3187 1469 2505 1446 2889 2386 2788 2818 
838 1769 1386 1272 1729 1488 294 1329 330 1185 1559 692 1952 1475 1734 1602 2118 1770 2207 755 831 1281 1301 1648 328 1329 306 1621 1229 959 2242 1087 1650 0 592 2088 635 716 1695 1601 2271 1685 835 2546 2025 389 1145 2138 932 1156 2373 597 1670 666 1253 1359 242 351 1222 626 487 1487 2120 1542 938 898 1881 1161 1240 1792 531 529 1616 608 998 1353 1525 1959 1117 787 1290 1766 1280 321 1568 918 857 1174 891 746 1586 2213 1601 332 926 2075 1475 879 1354 1343 
844 2032 1292 1244 2096 1465 774 1081 621 1388 1481 584 2213 1663 1722 1918 2461 2165 2630 1215 1001 1827 1854 2067 648 1776 337 1408 992 1405 2413 819 1699 592 0 2464 1222 1149 1939 1887 2622 1893 1186 2954 2394 686 1725 2296 1284 1535 2423 1071 1841 1198 1730 1840 512 855 898 781 106 1907 2323 1689 1501 733 2202 1419 1656 2017 414 1114 1676 684 1456 1037 1912 2261 1667 1255 1842 1893 1351 805 1604 1262 931 1727 1134 854 1356 2623 1533 359 888 2486 1191 723 1090 1811 
2910 604 3456 1592 3236 1532 1795 3415 2396 3087 3617 2780 540 990 1483 576 160 323 288 2431 2832 1157 1186 466 2384 2755 2352 3708 3315 2559 900 3167 1311 2088 2464 0 1936 2468 3449 3304 212 821 1284 509 77 2434 2023 934 2717 938 1391 1494 3526 1487 909 2663 1995 1739 3292 1691 2392 2930 756 1063 2127 1956 3457 3006 2784 3558 2607 1968 3590 1798 2549 3428 564 372 2252 2426 2296 1051 1372 1767 3563 2720 1612 1241 1342 2794 3674 228 3654 2119 3003 182 3558 2966 3439 2699 
1129 1804 1628 1660 1388 1845 618 1706 716 1159 1760 1124 1972 1638 2058 1587 2012 1618 1974 495 967 875 875 1471 688 914 903 1935 1613 635 2342 1516 1928 635 1222 1936 0 539 1524 1387 2142 1796 954 2316 1890 703 512 2263 782 1131 2592 639 1590 513 1028 882 817 567 1669 1040 1116 1094 2194 1737 343 1427 1588 1071 893 1632 1041 108 1671 1085 637 1779 1416 1923 535 490 693 1955 1588 608 1653 786 1253 763 1122 985 1918 2000 1788 951 1224 1869 1863 1278 1741 890 
699 2291 1128 1969 1013 2178 899 1271 529 621 1242 800 2466 2074 2415 2086 2537 2148 2512 85 477 1408 1405 2002 502 630 819 1454 1188 256 2813 1132 2311 716 1149 2468 539 0 1033 916 2672 2256 1384 2855 2419 465 794 2723 255 1623 3013 1071 1067 1002 1560 693 959 895 1287 1317 1060 776 2673 2160 535 1614 1173 540 526 1138 813 501 1132 1318 306 1373 1935 2432 619 126 781 2384 1949 908 1116 254 1550 1297 1510 550 1447 2537 1265 1027 783 2406 1426 900 1310 661 
1124 3318 1021 2967 465 3183 1921 1376 1407 551 959 1382 3490 3106 3427 3107 3532 3135 3457 1044 939 2325 2309 2985 1394 766 1676 1314 1359 892 3844 1439 3333 1695 1939 3449 1524 1033 0 160 3658 3288 2417 3793 3407 1334 1507 3756 781 2646 4042 2103 239 2022 2543 907 1930 1924 1541 2320 1882 647 3702 3191 1336 2557 366 537 683 109 1526 1516 582 2302 900 1532 2939 3447 1256 1038 1296 3416 2966 1933 654 789 2552 2225 2538 1085 1353 3492 934 1954 1121 3367 1471 1325 1414 848 
1100 3187 1077 2871 346 3084 1812 1417 1328 518 1042 1349 3357 2987 3325 2973 3390 2992 3307 918 889 2174 2157 2841 1312 606 1607 1390 1389 752 3718 1451 3225 1601 1887 3304 1387 916 160 0 3514 3164 2296 3641 3263 1255 1350 3632 672 2514 3928 1980 365 1891 2400 747 1839 1811 1565 2221 1823 489 3574 3075 1185 2477 328 467 528 264 1478 1386 684 2209 756 1570 2800 3310 1099 908 1136 3299 2861 1822 745 684 2453 2075 2425 1040 1423 3343 1023 1875 1111 3218 1525 1314 1457 688 
3099 665 3646 1678 3448 1591 1977 3594 2584 3290 3809 2960 544 1074 1509 706 162 524 389 2636 3028 1369 1397 673 2572 2967 2527 3891 3494 2767 815 3343 1349 2271 2622 212 2142 2672 3658 3514 0 875 1453 447 253 2624 2235 876 2922 1115 1314 1681 3732 1685 1116 2875 2165 1924 3465 1843 2554 3142 696 1128 2338 2078 3668 3211 2995 3767 2783 2171 3791 1947 2758 3602 750 406 2464 2633 2508 1073 1463 1949 3762 2925 1744 1453 1490 2986 3855 316 3847 2284 3191 355 3735 3147 3617 2911 
2517 217 3059 811 3183 717 1405 2940 2015 2834 3238 2330 349 232 669 362 725 712 1098 2246 2509 1335 1380 772 2012 2706 1880 3257 2843 2420 559 2679 491 1685 1893 821 1796 2256 3288 3164 875 0 874 1309 748 2071 2081 468 2510 683 836 1185 3310 1283 969 2654 1515 1381 2781 1127 1846 2887 437 254 2085 1259 3383 2783 2688 3394 2138 1781 3296 1212 2429 2921 618 470 2255 2256 2356 260 606 1385 3250 2505 965 1357 798 2431 3212 1047 3282 1596 2600 955 3067 2514 2956 2673 
1673 936 2221 792 2336 935 544 2144 1161 1961 2394 1514 1119 691 1122 768 1296 980 1445 1379 1643 857 900 884 1155 1867 1075 2447 2045 1560 1433 1891 979 835 1186 1284 954 1384 2417 2296 1453 874 0 1769 1216 1212 1330 1340 1638 349 1641 319 2436 460 608 1834 712 510 2012 445 1110 2047 1300 785 1273 827 2527 1909 1835 2522 1333 923 2428 556 1574 2149 726 1125 1458 1392 1586 1006 663 521 2386 1632 490 804 210 1575 2409 1437 2435 836 1761 1300 2283 1701 2166 1844 
3350 1093 3891 2097 3534 2025 2258 3874 2841 3475 4044 3238 989 1493 1954 1085 584 789 344 2808 3250 1468 1484 898 2826 3065 2822 4157 3774 2914 1242 3632 1790 2546 2954 509 2316 2855 3793 3641 447 1309 1769 0 586 2873 2311 1314 3096 1419 1737 1949 3892 1913 1312 2956 2473 2195 3762 2189 2878 3232 1137 1558 2457 2464 3761 3384 3114 3901 3072 2363 3986 2297 2896 3896 1042 840 2556 2798 2570 1517 1878 2228 3966 3101 2119 1571 1843 3226 4127 333 4078 2604 3444 471 4020 3423 3900 3000 
2851 531 3397 1515 3202 1457 1732 3351 2336 3037 3560 2716 478 914 1412 500 144 272 354 2384 2777 1129 1160 423 2324 2720 2287 3646 3252 2516 856 3102 1238 2025 2394 77 1890 2419 3407 3263 253 748 1216 586 0 2375 1994 883 2670 872 1342 1433 3480 1433 864 2631 1928 1677 3226 1619 2323 2896 706 988 2090 1880 3422 2958 2746 3516 2542 1918 3538 1726 2508 3363 501 309 2219 2381 2269 981 1296 1704 3510 2672 1537 1209 1269 2736 3611 300 3597 2051 2943 228 3493 2903 3375 2666 
477 2148 1022 1642 1427 1862 669 1025 74 806 1187 421 2331 1864 2113 1972 2475 2113 2531 536 442 1519 1530 1982 62 1090 365 1288 928 719 2629 817 2035 389 686 2434 703 465 1334 1255 2624 2071 1212 2873 2375 0 1142 2527 611 1517 2760 943 1290 960 1563 1158 604 707 969 1008 601 1223 2505 1931 891 1223 1554 798 972 1426 365 605 1227 976 771 1083 1874 2329 1029 577 1203 2155 1665 691 1179 591 1236 1406 1279 364 1261 2543 1226 621 572 2406 1180 583 1057 1126 
1488 2040 1909 2096 1223 2261 1113 2064 1173 1317 2004 1548 2186 1964 2451 1806 2131 1731 1986 712 1269 866 840 1578 1144 756 1398 2242 1979 702 2593 1912 2302 1145 1725 2023 512 794 1507 1350 2235 2081 1330 2311 1994 1142 0 2532 945 1399 2910 1050 1643 874 1165 645 1327 1051 2068 1514 1620 920 2433 2076 260 1920 1449 1199 826 1614 1502 615 1820 1572 662 2161 1585 2101 251 678 279 2279 1992 1098 1827 962 1709 786 1526 1338 2238 2029 2020 1463 1575 1914 2219 1675 2103 689 
2963 505 3500 1107 3649 933 1864 3362 2468 3297 3682 2766 422 663 752 740 784 985 1218 2714 2966 1749 1792 1096 2467 3171 2316 3683 3267 2888 125 3099 656 2138 2296 934 2263 2723 3756 3632 876 468 1340 1314 883 2527 2532 0 2977 1142 461 1653 3775 1750 1391 3116 1955 1844 3192 1556 2259 3352 181 609 2547 1611 3850 3249 3155 3861 2571 2249 3753 1629 2897 3332 993 584 2714 2725 2810 405 950 1846 3706 2972 1367 1785 1248 2883 3636 1151 3727 2023 3044 1110 3482 2947 3376 3136 
655 2547 974 2200 817 2412 1141 1181 683 386 1060 833 2721 2326 2653 2341 2789 2398 2754 288 398 1639 1632 2252 663 532 975 1314 1111 252 3067 1092 2554 932 1284 2717 782 255 781 672 2922 2510 1638 3096 2670 611 945 2977 0 1878 3261 1325 812 1257 1809 643 1172 1143 1240 1549 1206 631 2928 2410 703 1818 951 289 389 885 903 754 901 1540 305 1303 2188 2687 726 299 858 2635 2189 1152 895 26 1782 1531 1757 529 1317 2782 1076 1220 719 2651 1329 882 1222 593 
1989 673 2537 944 2512 1016 862 2479 1473 2225 2704 1845 844 581 1135 464 961 630 1096 1602 1934 712 759 537 1463 2032 1414 2777 2380 1764 1214 2230 961 1156 1535 938 1131 1623 2646 2514 1115 683 349 1419 872 1517 1399 1142 1878 0 1512 575 2688 624 367 1974 1057 812 2354 782 1459 2213 1063 700 1406 1124 2717 2160 2023 2753 1670 1130 2711 894 1768 2490 378 816 1573 1608 1673 887 752 835 2675 1876 769 706 462 1881 2741 1088 2743 1185 2079 951 2621 2032 2503 1995 
3164 941 3684 1180 3977 962 2123 3504 2695 3555 3870 2945 882 955 711 1167 1238 1441 1672 3015 3202 2167 2212 1546 2699 3506 2504 3831 3414 3200 499 3242 732 2373 2423 1391 2592 3013 4042 3928 1314 836 1641 1737 1342 2760 2910 461 3261 1512 0 1960 4039 2084 1803 3465 2164 2118 3317 1755 2406 3686 636 856 2898 1697 4167 3520 3476 4144 2748 2564 3982 1805 3215 3455 1426 1045 3074 3030 3183 637 1099 2110 3927 3253 1537 2192 1504 3103 3779 1602 3919 2201 3237 1569 3611 3117 3513 3480 
1417 1228 1965 1047 2017 1218 313 1926 903 1659 2130 1289 1406 1009 1422 1036 1532 1175 1611 1062 1359 776 809 1051 891 1550 881 2214 1826 1241 1742 1684 1289 597 1071 1494 639 1071 2103 1980 1681 1185 319 1949 1433 943 1050 1653 1325 575 1960 0 2129 189 666 1521 560 246 1816 506 978 1729 1603 1104 966 933 2208 1601 1516 2209 1125 604 2138 594 1255 1949 932 1391 1154 1074 1292 1324 954 282 2101 1321 668 688 486 1307 2181 1616 2169 713 1509 1478 2072 1475 1951 1529 
1003 3355 811 2933 699 3152 1918 1175 1360 485 731 1266 3531 3118 3402 3152 3600 3208 3552 1096 862 2426 2414 3060 1352 934 1608 1087 1169 978 3869 1266 3319 1670 1841 3526 1590 1067 239 365 3732 3310 2436 3892 3480 1290 1643 3775 812 2688 4039 2129 0 2068 2617 1084 1894 1931 1354 2295 1796 844 3732 3196 1447 2497 600 528 824 230 1429 1566 347 2266 1001 1332 3000 3499 1394 1100 1457 3421 2950 1933 423 813 2525 2321 2540 994 1129 3583 702 1899 982 3454 1259 1182 1211 1022 
1437 1296 1978 1226 1900 1387 425 1974 933 1611 2134 1341 1468 1129 1581 1085 1544 1164 1570 979 1345 629 656 1027 916 1424 968 2247 1875 1141 1831 1743 1438 666 1198 1487 513 1002 2022 1891 1685 1283 460 1913 1433 960 874 1750 1257 624 2084 189 2068 0 603 1381 690 344 1883 693 1100 1605 1684 1232 816 1120 2100 1541 1405 2130 1194 506 2107 778 1148 2011 939 1431 998 984 1126 1447 1119 394 2077 1256 855 530 652 1314 2219 1584 2169 848 1532 1448 2124 1523 2002 1395 
2040 888 2579 1307 2350 1383 979 2574 1535 2180 2732 1940 1023 921 1492 652 990 592 968 1522 1940 366 412 443 1518 1867 1545 2850 2475 1652 1440 2339 1314 1253 1730 909 1028 1560 2543 2400 1116 969 608 1312 864 1563 1165 1391 1809 367 1803 666 2617 603 0 1787 1222 907 2476 1046 1641 2045 1277 1042 1233 1434 2567 2098 1885 2652 1784 1061 2686 1157 1644 2606 420 936 1375 1517 1445 1204 1119 948 2662 1812 1089 394 784 1915 2821 985 2766 1370 2135 850 2723 2123 2602 1817 
1299 2637 1560 2532 578 2723 1462 1811 1220 898 1602 1462 2793 2510 2940 2409 2766 2365 2631 625 1041 1508 1484 2212 1192 152 1507 1903 1746 442 3187 1735 2809 1359 1840 2663 882 693 907 747 2875 2654 1834 2956 2631 1158 645 3116 643 1974 3465 1521 1084 1381 1787 0 1593 1428 1882 1895 1748 278 3031 2613 569 2245 805 769 297 1007 1501 934 1331 1921 387 1940 2203 2721 412 587 397 2828 2469 1459 1362 669 2118 1422 2004 1169 1916 2674 1604 1687 1361 2558 1953 1524 1852 64 
1008 1620 1546 1039 1971 1258 266 1437 535 1410 1726 816 1804 1295 1509 1475 2008 1686 2142 995 1042 1318 1346 1578 542 1568 368 1747 1339 1200 2064 1181 1435 242 512 1995 817 959 1930 1839 2165 1515 712 2473 1928 604 1327 1955 1172 1057 2164 560 1894 690 1222 1593 0 348 1300 408 419 1727 1952 1350 1142 657 2122 1394 1482 2025 627 719 1819 373 1238 1437 1434 1828 1328 1026 1497 1571 1065 296 1764 1157 632 1220 717 939 1706 2140 1772 158 1088 2002 1573 1002 1457 1579 
1177 1445 1725 1105 1882 1301 82 1679 661 1453 1893 1043 1627 1187 1529 1265 1773 1420 1857 902 1133 972 999 1298 652 1435 638 1969 1580 1096 1941 1437 1417 351 855 1739 567 895 1924 1811 1924 1381 510 2195 1677 707 1051 1844 1143 812 2118 246 1931 344 907 1428 348 0 1571 473 756 1608 1810 1268 910 869 2060 1407 1379 2027 879 495 1918 521 1120 1703 1176 1622 1102 921 1259 1492 1059 54 1877 1135 690 873 615 1071 1935 1862 1933 506 1268 1724 1825 1229 1705 1427 
592 2907 570 2138 1876 2356 1505 222 970 1072 733 550 3090 2552 2611 2773 3308 2980 3426 1372 843 2476 2490 2865 994 1760 940 535 187 1473 3309 156 2596 1222 898 3292 1669 1287 1541 1565 3465 2781 2012 3762 3226 969 2068 3192 1240 2354 3317 1816 1354 1883 2476 1882 1300 1571 0 1656 935 1814 3214 2585 1808 1621 1888 1176 1606 1577 692 1573 1064 1569 1531 140 2730 3124 1905 1411 2064 2791 2249 1535 977 1215 1826 2364 2000 737 476 3429 786 1191 521 3291 294 393 211 1829 
1414 1254 1946 652 2325 864 434 1813 941 1810 2129 1210 1436 901 1109 1138 1682 1402 1874 1339 1448 1250 1288 1319 946 1893 760 2131 1716 1541 1667 1552 1027 626 781 1691 1040 1317 2320 2221 1843 1127 445 2189 1619 1008 1514 1556 1549 782 1755 506 2295 693 1046 1895 408 473 1656 0 723 2063 1563 948 1383 427 2490 1787 1826 2417 1016 967 2227 112 1570 1795 1150 1479 1575 1364 1731 1166 657 437 2173 1536 233 1176 353 1347 2086 1861 2176 469 1492 1726 1940 1391 1829 1891 
810 1977 1287 1231 2021 1454 676 1104 532 1333 1476 558 2159 1617 1711 1854 2394 2089 2551 1123 944 1728 1754 1988 558 1689 241 1428 1011 1315 2375 841 1677 487 106 2392 1116 1060 1882 1823 2554 1846 1110 2878 2323 601 1620 2259 1206 1459 2406 978 1796 1100 1641 1748 419 756 935 723 0 1824 2279 1651 1398 733 2135 1356 1573 1964 371 1009 1648 634 1365 1075 1836 2200 1566 1162 1741 1860 1321 707 1579 1185 892 1627 1073 803 1379 2546 1526 274 863 2409 1223 716 1116 1720 
1258 2881 1423 2710 306 2910 1632 1713 1292 763 1436 1460 3042 2732 3135 2656 3030 2629 2905 732 1004 1779 1755 2476 1268 181 1586 1761 1661 527 3427 1677 3014 1487 1907 2930 1094 776 647 489 3142 2887 2047 3232 2896 1223 920 3352 631 2213 3686 1729 844 1605 2045 278 1727 1608 1814 2063 1824 0 3275 2831 814 2384 529 644 251 741 1533 1128 1126 2076 493 1853 2459 2976 679 702 675 3050 2664 1633 1169 656 2291 1689 2205 1148 1782 2947 1430 1802 1304 2829 1844 1488 1754 232 
2953 394 3496 1180 3575 1030 1837 3375 2450 3260 3674 2767 265 662 880 627 604 827 1038 2658 2941 1626 1668 949 2446 3094 2317 3693 3279 2825 166 3114 756 2120 2323 756 2194 2673 3702 3574 696 437 1300 1137 706 2505 2433 181 2928 1063 636 1603 3732 1684 1277 3031 1952 1810 3214 1563 2279 3275 0 641 2464 1665 3781 3205 3086 3809 2575 2188 3727 1645 2830 3354 866 415 2625 2666 2712 478 1000 1817 3683 2924 1392 1671 1235 2866 3648 970 3718 2032 3037 932 3501 2951 3391 3055 
2359 465 2894 559 3121 469 1278 2753 1870 2715 3076 2158 602 121 469 543 976 914 1332 2160 2373 1404 1451 944 1870 2651 1708 3074 2658 2344 724 2490 284 1542 1689 1063 1737 2160 3191 3075 1128 254 785 1558 988 1931 2076 609 2410 700 856 1104 3196 1232 1042 2613 1350 1268 2585 948 1651 2831 641 0 2048 1025 3311 2674 2620 3295 1963 1708 3158 1020 2359 2724 766 722 2227 2174 2344 225 362 1263 3108 2403 759 1405 656 2284 3027 1286 3122 1414 2438 1185 2874 2338 2767 2626 
1227 2070 1656 2000 1118 2181 959 1804 927 1084 1758 1291 2229 1943 2388 1844 2221 1820 2122 454 1011 990 973 1667 897 635 1168 1987 1719 475 2619 1652 2252 938 1501 2127 343 535 1336 1185 2338 2085 1273 2457 2090 891 260 2547 703 1406 2898 966 1447 816 1233 569 1142 910 1808 1383 1398 814 2464 2048 0 1767 1334 972 659 1444 1254 426 1595 1426 446 1900 1645 2162 192 423 355 2261 1920 950 1596 718 1594 891 1452 1078 1981 2158 1776 1266 1315 2035 1959 1416 1843 591 
1535 1434 2018 520 2625 736 810 1811 1150 2019 2208 1290 1602 1030 991 1381 1916 1700 2173 1652 1635 1668 1707 1643 1165 2224 889 2139 1724 1857 1734 1551 983 898 733 1956 1427 1614 2557 2477 2078 1259 827 2464 1880 1223 1920 1611 1818 1124 1697 933 2497 1120 1434 2245 657 869 1621 427 733 2384 1665 1025 1767 0 2769 2021 2138 2647 1098 1342 2373 349 1894 1758 1459 1685 1957 1683 2120 1206 665 822 2307 1802 356 1598 661 1507 2086 2149 2259 603 1594 2022 1915 1447 1818 2233 
1427 3389 1383 3142 229 3351 2071 1733 1628 846 1326 1674 3553 3217 3587 3168 3554 3153 3434 1158 1211 2307 2284 3000 1609 702 1913 1680 1709 968 3930 1777 3477 1881 2202 3457 1588 1173 366 328 3668 3383 2527 3761 3422 1554 1449 3850 951 2717 4167 2208 600 2100 2567 805 2122 2060 1888 2490 2135 529 3781 3311 1334 2769 0 786 695 387 1797 1605 946 2488 954 1887 2978 3493 1208 1140 1198 3533 3118 2077 1019 968 2723 2216 2670 1363 1718 3476 1300 2170 1439 3357 1833 1642 1772 761 
652 2826 792 2432 716 2649 1397 1069 871 129 838 890 3003 2593 2895 2624 3077 2687 3043 577 424 1926 1918 2540 857 625 1144 1135 1018 498 3342 1045 2805 1161 1419 3006 1071 540 537 467 3211 2783 1909 3384 2958 798 1199 3249 289 2160 3520 1601 528 1541 2098 769 1394 1407 1176 1787 1356 644 3205 2674 972 2021 786 0 472 631 1011 1041 623 1767 537 1210 2475 2972 963 586 1069 2898 2437 1411 629 287 2019 1818 2018 577 1150 3071 844 1418 680 2940 1201 876 1111 708 
1034 2696 1264 2476 503 2679 1397 1524 1041 601 1306 1222 2861 2524 2908 2476 2875 2475 2781 488 777 1648 1630 2323 1017 155 1335 1607 1463 285 3235 1463 2792 1240 1656 2784 893 526 683 528 2995 2688 1835 3114 2746 972 826 3155 389 2023 3476 1516 824 1405 1885 297 1482 1379 1606 1826 1573 251 3086 2620 659 2138 695 472 0 790 1287 912 1045 1834 261 1657 2291 2805 574 461 635 2840 2438 1401 1071 414 2056 1550 1984 915 1621 2817 1308 1553 1089 2694 1663 1263 1565 235 
1192 3425 1040 3063 531 3280 2022 1403 1499 631 959 1452 3597 3211 3526 3214 3641 3244 3566 1151 1020 2434 2418 3094 1487 868 1763 1315 1393 1000 3950 1484 3433 1792 2017 3558 1632 1138 109 264 3767 3394 2522 3901 3516 1426 1614 3861 885 2753 4144 2209 230 2130 2652 1007 2025 2027 1577 2417 1964 741 3809 3295 1444 2647 387 631 790 0 1604 1624 572 2398 1009 1559 3048 3555 1362 1146 1399 3519 3066 2035 652 892 2649 2334 2641 1163 1358 3601 929 2045 1181 3476 1488 1385 1440 949 
439 2248 936 1582 1702 1806 814 812 329 975 1123 197 2432 1916 2064 2099 2628 2292 2735 890 589 1798 1815 2175 359 1418 260 1120 712 1058 2683 560 2016 531 414 2607 1041 813 1526 1478 2783 2138 1333 3072 2542 365 1502 2571 903 1670 2748 1125 1429 1194 1784 1501 627 879 692 1016 371 1533 2575 1963 1254 1098 1797 1011 1287 1604 0 937 1277 947 1114 824 2043 2454 1394 932 1567 2179 1652 844 1210 879 1215 1688 1344 441 1079 2739 1171 550 496 2601 951 376 833 1463 
1045 1802 1555 1598 1413 1790 537 1618 613 1119 1694 1026 1974 1612 2010 1591 2036 1647 2020 473 898 942 946 1502 586 950 795 1855 1523 639 2333 1421 1886 529 1114 1968 108 501 1516 1386 2171 1781 923 2363 1918 605 615 2249 754 1130 2564 604 1566 506 1061 934 719 495 1573 967 1009 1128 2188 1708 426 1342 1605 1041 912 1624 937 0 1625 1003 651 1686 1434 1934 615 478 781 1928 1539 530 1603 755 1185 828 1077 903 1836 2042 1724 849 1140 1909 1774 1185 1652 936 
839 3362 497 2841 1029 3064 1891 867 1289 515 389 1092 3543 3091 3319 3173 3651 3268 3643 1184 787 2538 2532 3126 1288 1179 1493 744 877 1121 3854 1000 3253 1616 1676 3590 1671 1132 582 684 3791 3296 2428 3986 3538 1227 1820 3753 901 2711 3982 2138 347 2107 2686 1331 1819 1918 1064 2227 1648 1126 3727 3158 1595 2373 946 623 1045 572 1277 1625 0 2182 1158 1022 3046 3527 1580 1200 1673 3382 2884 1910 88 891 2449 2428 2506 880 789 3668 356 1795 788 3535 932 969 899 1268 
1359 1348 1882 667 2330 886 467 1733 906 1782 2067 1143 1529 983 1139 1241 1785 1512 1984 1347 1411 1352 1389 1430 915 1910 698 2054 1638 1550 1743 1471 1074 608 684 1798 1085 1318 2302 2209 1947 1212 556 2297 1726 976 1572 1629 1540 894 1805 594 2266 778 1157 1921 373 521 1569 112 634 2076 1645 1020 1426 349 2488 1767 1834 2398 947 1003 2182 0 1583 1709 1260 1579 1617 1374 1778 1233 707 477 2125 1526 269 1274 457 1302 2007 1970 2115 397 1432 1836 1856 1321 1747 1913 
940 2441 1277 2219 764 2420 1140 1483 835 657 1355 1083 2608 2264 2649 2223 2634 2236 2559 246 689 1429 1415 2085 808 331 1125 1619 1410 59 2978 1380 2532 998 1456 2549 637 306 900 756 2758 2429 1574 2896 2508 771 662 2897 305 1768 3215 1255 1001 1148 1644 387 1238 1120 1531 1570 1365 493 2830 2359 446 1894 954 537 261 1009 1114 651 1158 1583 0 1601 2045 2556 428 212 553 2580 2178 1143 1166 328 1800 1326 1723 801 1622 2592 1368 1320 1012 2467 1632 1159 1524 355 
674 3046 525 2276 1892 2493 1638 157 1090 1097 664 672 3229 2692 2748 2911 3445 3115 3559 1457 913 2598 2610 2999 1113 1811 1076 418 193 1543 3449 269 2734 1353 1037 3428 1779 1373 1532 1570 3602 2921 2149 3896 3363 1083 2161 3332 1303 2490 3455 1949 1332 2011 2606 1940 1437 1703 140 1795 1075 1853 3354 2724 1900 1758 1887 1210 1657 1559 824 1686 1022 1709 1601 0 2865 3263 1989 1495 2142 2930 2388 1668 934 1278 1965 2486 2140 823 355 3563 714 1330 592 3425 161 501 123 1884 
2349 489 2897 1183 2764 1192 1232 2851 1835 2550 3060 2216 607 652 1235 260 605 253 724 1905 2279 761 802 192 1823 2280 1789 3145 2752 2048 1031 2604 1049 1525 1912 564 1416 1935 2939 2800 750 618 726 1042 501 1874 1585 993 2188 378 1426 932 3000 939 420 2203 1434 1176 2730 1150 1836 2459 866 766 1645 1459 2978 2475 2291 3048 2043 1434 3046 1260 2045 2865 0 518 1792 1905 1864 874 967 1204 3015 2189 1104 809 811 2236 3110 712 3097 1562 2442 576 2994 2403 2875 2233 
2796 259 3344 1272 3280 1187 1665 3265 2282 3039 3514 2638 170 670 1118 357 256 419 660 2407 2750 1261 1300 554 2274 2797 2195 3571 3166 2557 576 3009 951 1959 2261 372 1923 2432 3447 3310 406 470 1125 840 309 2329 2101 584 2687 816 1045 1391 3499 1431 936 2721 1828 1622 3124 1479 2200 2976 415 722 2162 1685 3493 2972 2805 3555 2454 1934 3527 1579 2556 3263 518 0 2310 2409 2380 683 1059 1640 3491 2686 1360 1321 1128 2693 3532 600 3555 1935 2885 535 3401 2825 3286 2750 
1316 2231 1699 2191 985 2370 1150 1881 1074 1085 1783 1410 2385 2120 2576 2001 2354 1953 2227 534 1081 1099 1076 1800 1044 509 1331 2038 1802 475 2782 1751 2436 1117 1667 2252 535 619 1256 1099 2464 2255 1458 2556 2219 1029 251 2714 726 1573 3074 1154 1394 998 1375 412 1328 1102 1905 1575 1566 679 2625 2227 192 1957 1208 963 574 1362 1394 615 1580 1617 428 1989 1792 2310 0 494 176 2438 2108 1142 1592 746 1787 1011 1640 1169 2038 2268 1796 1447 1397 2150 2034 1519 1921 448 
822 2280 1233 2014 962 2218 936 1391 636 685 1338 925 2451 2083 2450 2068 2502 2108 2457 42 592 1340 1333 1961 608 543 921 1564 1309 176 2810 1256 2338 787 1255 2426 490 126 1038 908 2633 2256 1392 2798 2381 577 678 2725 299 1608 3030 1074 1100 984 1517 587 1026 921 1411 1364 1162 702 2666 2174 423 1683 1140 586 461 1146 932 478 1200 1374 212 1495 1905 2409 494 0 655 2397 1980 941 1192 309 1595 1232 1531 674 1560 2486 1358 1108 904 2356 1545 1025 1431 562 
1472 2318 1830 2336 969 2510 1311 2030 1249 1195 1902 1578 2465 2234 2708 2085 2407 2008 2249 696 1231 1140 1111 1855 1219 531 1507 2171 1954 607 2872 1910 2563 1290 1842 2296 693 781 1296 1136 2508 2356 1586 2570 2269 1203 279 2810 858 1673 3183 1292 1457 1126 1445 397 1497 1259 2064 1731 1741 675 2712 2344 355 2120 1198 1069 635 1399 1567 781 1673 1778 553 2142 1864 2380 176 655 0 2550 2244 1301 1692 880 1937 1064 1775 1327 2175 2295 1911 1620 1551 2183 2181 1680 2071 451 
2579 457 3112 706 3340 552 1503 2963 2093 2939 3295 2375 529 318 436 621 936 970 1335 2383 2596 1570 1616 1032 2094 2869 1926 3286 2869 2565 527 2700 283 1766 1893 1051 1955 2384 3416 3299 1073 260 1006 1517 981 2155 2279 405 2635 887 637 1324 3421 1447 1204 2828 1571 1492 2791 1166 1860 3050 478 225 2261 1206 3533 2898 2840 3519 2179 1928 3382 1233 2580 2930 874 683 2438 2397 2550 0 545 1488 3331 2627 968 1583 881 2506 3238 1279 3342 1629 2658 1198 3082 2554 2976 2842 
2065 800 2588 221 2941 275 1049 2425 1599 2465 2774 1849 955 389 471 808 1305 1169 1622 1960 2105 1450 1497 1158 1603 2488 1405 2750 2332 2155 1071 2162 370 1280 1351 1372 1588 1949 2966 2861 1463 606 663 1878 1296 1665 1992 950 2189 752 1099 954 2950 1119 1119 2469 1065 1059 2249 657 1321 2664 1000 362 1920 665 3118 2437 2438 3066 1652 1539 2884 707 2178 2388 967 1059 2108 1980 2244 545 0 1041 2828 2179 438 1423 469 2004 2700 1585 2822 1103 2139 1471 2541 2024 2437 2474 
1156 1457 1704 1077 1903 1278 31 1648 642 1453 1875 1013 1639 1186 1509 1283 1797 1450 1891 920 1124 1023 1051 1331 635 1461 598 1942 1549 1117 1945 1404 1403 321 805 1767 608 908 1933 1822 1949 1385 521 2228 1704 691 1098 1846 1152 835 2110 282 1933 394 948 1459 296 54 1535 437 707 1633 1817 1263 950 822 2077 1411 1401 2035 844 530 1910 477 1143 1668 1204 1640 1142 941 1301 1488 1041 0 1867 1143 659 925 607 1055 1907 1895 1916 454 1245 1757 1793 1199 1673 1456 
773 3322 410 2780 1091 3004 1846 779 1238 511 308 1022 3503 3043 3260 3137 3620 3241 3623 1173 743 2524 2520 3100 1239 1211 1432 663 790 1125 3808 915 3197 1568 1604 3563 1653 1116 654 745 3762 3250 2386 3966 3510 1179 1827 3706 895 2675 3927 2101 423 2077 2662 1362 1764 1877 977 2173 1579 1169 3683 3108 1596 2307 1019 629 1071 652 1210 1603 88 2125 1166 934 3015 3491 1592 1192 1692 3331 2828 1867 0 883 2392 2414 2458 825 706 3645 280 1735 717 3511 846 892 812 1298 
629 2544 953 2187 837 2400 1132 1157 664 376 1042 807 2719 2319 2642 2340 2791 2400 2760 294 372 1647 1641 2254 644 558 954 1293 1086 273 3063 1066 2544 918 1262 2720 786 254 789 684 2925 2505 1632 3101 2672 591 962 2972 26 1876 3253 1321 813 1256 1812 669 1157 1135 1215 1536 1185 656 2924 2403 718 1802 968 287 414 892 879 755 891 1526 328 1278 2189 2686 746 309 880 2627 2179 1143 883 0 1769 1538 1749 503 1295 2786 1059 1202 693 2655 1305 856 1198 619 
1628 1118 2151 420 2556 631 660 1995 1168 2040 2336 1412 1294 733 878 1040 1582 1348 1822 1571 1674 1346 1388 1287 1174 2120 967 2318 1901 1771 1483 1733 805 857 931 1612 1253 1550 2552 2453 1744 965 490 2119 1537 1236 1709 1367 1782 769 1537 668 2525 855 1089 2118 632 690 1826 233 892 2291 1392 759 1594 356 2723 2019 2056 2649 1215 1185 2449 269 1800 1965 1104 1360 1787 1595 1937 968 438 659 2392 1769 0 1287 308 1568 2270 1800 2384 666 1701 1671 2115 1588 2009 2116 
1867 1283 2384 1584 1995 1696 954 2431 1395 1914 2521 1815 1416 1285 1836 1047 1345 945 1233 1244 1726 113 128 792 1373 1515 1480 2680 2334 1343 1834 2217 1665 1174 1727 1241 763 1297 2225 2075 1453 1357 804 1571 1209 1406 786 1785 1531 706 2192 688 2321 530 394 1422 1220 873 2364 1176 1627 1689 1671 1405 891 1598 2216 1818 1550 2334 1688 828 2428 1274 1326 2486 809 1321 1011 1232 1064 1583 1423 925 2414 1538 1287 0 1012 1729 2659 1267 2549 1378 1963 1144 2586 1987 2463 1458 
1719 907 2261 583 2487 735 622 2150 1220 2059 2440 1534 1090 585 937 785 1329 1060 1535 1514 1719 1060 1104 989 1219 2028 1084 2463 2052 1704 1352 1891 809 891 1134 1342 1122 1510 2538 2425 1490 798 210 1843 1269 1279 1526 1248 1757 462 1504 486 2540 652 784 2004 717 615 2000 353 1073 2205 1235 656 1452 661 2670 2018 1984 2641 1344 1077 2506 457 1723 2140 811 1128 1640 1531 1775 881 469 607 2458 1749 308 1012 0 1636 2421 1517 2484 810 1802 1385 2281 1719 2168 2010 
149 2512 664 1963 1283 2185 1032 730 416 534 824 316 2694 2220 2440 2336 2838 2472 2883 635 153 1842 1849 2340 421 1061 619 952 642 743 2987 583 2373 746 854 2794 985 550 1085 1040 2986 2431 1575 3226 2736 364 1338 2883 529 1881 3103 1307 994 1314 1915 1169 939 1071 737 1347 803 1148 2866 2284 1078 1507 1363 577 915 1163 441 903 880 1302 801 823 2236 2693 1169 674 1327 2506 2004 1055 825 503 1568 1729 1636 0 933 2898 863 918 241 2761 886 357 767 1121 
792 3326 359 2600 1764 2820 1879 275 1286 1024 400 896 3510 2987 3077 3177 3701 3356 3786 1527 971 2773 2780 3231 1303 1775 1338 64 369 1568 3750 538 3054 1586 1356 3674 1918 1447 1353 1423 3855 3212 2409 4127 3611 1261 2238 3636 1317 2741 3779 2181 1129 2219 2821 1916 1706 1935 476 2086 1379 1782 3648 3027 1981 2086 1718 1150 1621 1358 1079 1836 789 2007 1622 355 3110 3532 2038 1560 2175 3238 2700 1907 706 1295 2270 2659 2421 933 0 3795 438 1617 696 3657 200 708 268 1856 
3020 831 3562 1806 3251 1754 1925 3542 2510 3158 3717 2905 767 1208 1711 780 366 459 74 2494 2925 1170 1191 565 2495 2776 2489 3826 3442 2607 1106 3299 1538 2213 2623 228 2000 2537 3492 3343 316 1047 1437 333 300 2543 2029 1151 2782 1088 1602 1616 3583 1584 985 2674 2140 1862 3429 1861 2546 2947 970 1286 2158 2149 3476 3071 2817 3601 2739 2042 3668 1970 2592 3563 712 600 2268 2486 2295 1279 1585 1895 3645 2786 1800 1267 1517 2898 3795 0 3751 2272 3114 138 3688 3091 3567 2715 
765 3370 242 2753 1368 2976 1892 569 1274 716 54 975 3554 3066 3234 3198 3700 3332 3734 1333 828 2662 2662 3196 1282 1454 1417 389 608 1321 3835 763 3187 1601 1533 3654 1788 1265 934 1023 3847 3282 2435 4078 3597 1226 2020 3727 1076 2743 3919 2169 702 2169 2766 1604 1772 1933 786 2176 1526 1430 3718 3122 1776 2259 1300 844 1308 929 1171 1724 356 2115 1368 714 3097 3555 1796 1358 1911 3342 2822 1916 280 1059 2384 2549 2484 863 438 3751 0 1718 684 3615 600 811 593 1541 
966 1717 1485 1046 2031 1269 425 1344 547 1419 1670 746 1900 1370 1525 1585 2124 1815 2277 1074 1038 1476 1504 1713 562 1650 304 1662 1247 1277 2135 1083 1469 332 359 2119 951 1027 1954 1875 2284 1596 836 2604 2051 621 1463 2023 1220 1185 2201 713 1899 848 1370 1687 158 506 1191 469 274 1802 2032 1414 1266 603 2170 1418 1553 2045 550 849 1795 397 1320 1330 1562 1935 1447 1108 1620 1629 1103 454 1735 1202 666 1378 810 918 1617 2272 1718 0 1037 2135 1472 924 1360 1668 
96 2694 460 2077 1394 2301 1220 490 607 594 638 305 2877 2383 2558 2528 3040 2682 3102 867 323 2076 2084 2553 620 1241 734 718 405 954 3152 375 2505 926 888 3003 1224 783 1121 1111 3191 2600 1761 3444 2943 572 1575 3044 719 2079 3237 1509 982 1532 2135 1361 1088 1268 521 1492 863 1304 3037 2438 1315 1594 1439 680 1089 1181 496 1140 788 1432 1012 592 2442 2885 1397 904 1551 2658 2139 1245 717 693 1701 1963 1802 241 696 3114 684 1037 0 2977 646 205 528 1309 
2883 742 3425 1692 3134 1652 1786 3403 2373 3026 3581 2767 705 1100 1624 663 341 325 152 2363 2789 1050 1074 426 2358 2657 2351 3688 3304 2480 1080 3161 1446 2075 2486 182 1869 2406 3367 3218 355 955 1300 471 228 2406 1914 1110 2651 951 1569 1478 3454 1448 850 2558 2002 1724 3291 1726 2409 2829 932 1185 2035 2022 3357 2940 2694 3476 2601 1909 3535 1836 2467 3425 576 535 2150 2356 2183 1198 1471 1757 3511 2655 1671 1144 1385 2761 3657 138 3615 2135 2977 0 3549 2953 3429 2597 
737 3188 451 2432 1857 2650 1764 157 1195 1081 554 784 3372 2839 2905 3048 3579 3243 3682 1509 953 2698 2709 3123 1215 1818 1208 264 251 1576 3598 392 2889 1475 1191 3558 1863 1426 1471 1525 3735 3067 2283 4020 3493 1180 2219 3482 1329 2621 3611 2072 1259 2124 2723 1953 1573 1825 294 1940 1223 1844 3501 2874 1959 1915 1833 1201 1663 1488 951 1774 932 1856 1632 161 2994 3401 2034 1545 2181 3082 2541 1793 846 1305 2115 2586 2281 886 200 3688 600 1472 646 3549 0 602 122 1895 
229 2621 571 1945 1592 2168 1171 451 594 797 760 187 2805 2291 2426 2469 2993 2649 3083 985 486 2100 2111 2526 615 1412 634 747 352 1100 3058 238 2386 879 723 2966 1278 900 1325 1314 3147 2514 1701 3423 2903 583 1675 2947 882 2032 3117 1475 1182 1523 2123 1524 1002 1229 393 1391 716 1488 2951 2338 1416 1447 1642 876 1263 1385 376 1185 969 1321 1159 501 2403 2825 1519 1025 1680 2554 2024 1199 892 856 1588 1987 1719 357 708 3091 811 924 205 2953 602 0 480 1475 
618 3075 403 2333 1783 2553 1644 42 1073 994 542 663 3258 2729 2809 2932 3461 3123 3561 1394 841 2576 2587 3003 1093 1720 1091 326 129 1467 3491 277 2788 1354 1090 3439 1741 1310 1414 1457 3617 2956 2166 3900 3375 1057 2103 3376 1222 2503 3513 1951 1211 2002 2602 1852 1457 1705 211 1829 1116 1754 3391 2767 1843 1818 1772 1111 1565 1440 833 1652 899 1747 1524 123 2875 3286 1921 1431 2071 2976 2437 1673 812 1198 2009 2463 2168 767 268 3567 593 1360 528 3429 122 480 0 1796 
1249 2661 1499 2532 537 2726 1457 1754 1190 836 1540 1418 2819 2524 2945 2434 2800 2399 2673 599 991 1547 1524 2246 1163 88 1480 1842 1691 407 3209 1683 2818 1343 1811 2699 890 661 848 688 2911 2673 1844 3000 2666 1126 689 3136 593 1995 3480 1529 1022 1395 1817 64 1579 1427 1829 1891 1720 232 3055 2626 591 2233 761 708 235 949 1463 936 1268 1913 355 1884 2233 2750 448 562 451 2842 2474 1456 1298 619 2116 1458 2010 1121 1856 2715 1541 1668 1309 2597 1895 1475 1796 0 
EOF
