<?xml version="1.0" encoding="utf-8"  standalone="no"?>
<!DOCTYPE svg PUBLIC "-//W3C//DTD SVG 1.1//EN"
 "http://www.w3.org/Graphics/SVG/1.1/DTD/svg11.dtd">
<svg 
 width="640" height="452"
 viewBox="0 0 640 452"
 xmlns="http://www.w3.org/2000/svg"
 xmlns:xlink="http://www.w3.org/1999/xlink"
>

<title>Gnuplot</title>
<desc>Produced by GNUPLOT 5.0 patchlevel 1 </desc>

<g id="gnuplot_canvas">

<rect x="0" y="0" width="640" height="452" fill="none"/>
<defs>

	<circle id='gpDot' r='0.5' stroke-width='0.5'/>
	<path id='gpPt0' stroke-width='0.222' stroke='currentColor' d='M-1,0 h2 M0,-1 v2'/>
	<path id='gpPt1' stroke-width='0.222' stroke='currentColor' d='M-1,-1 L1,1 M1,-1 L-1,1'/>
	<path id='gpPt2' stroke-width='0.222' stroke='currentColor' d='M-1,0 L1,0 M0,-1 L0,1 M-1,-1 L1,1 M-1,1 L1,-1'/>
	<rect id='gpPt3' stroke-width='0.222' stroke='currentColor' x='-1' y='-1' width='2' height='2'/>
	<rect id='gpPt4' stroke-width='0.222' stroke='currentColor' fill='currentColor' x='-1' y='-1' width='2' height='2'/>
	<circle id='gpPt5' stroke-width='0.222' stroke='currentColor' cx='0' cy='0' r='1'/>
	<use xlink:href='#gpPt5' id='gpPt6' fill='currentColor' stroke='none'/>
	<path id='gpPt7' stroke-width='0.222' stroke='currentColor' d='M0,-1.33 L-1.33,0.67 L1.33,0.67 z'/>
	<use xlink:href='#gpPt7' id='gpPt8' fill='currentColor' stroke='none'/>
	<use xlink:href='#gpPt7' id='gpPt9' stroke='currentColor' transform='rotate(180)'/>
	<use xlink:href='#gpPt9' id='gpPt10' fill='currentColor' stroke='none'/>
	<use xlink:href='#gpPt3' id='gpPt11' stroke='currentColor' transform='rotate(45)'/>
	<use xlink:href='#gpPt11' id='gpPt12' fill='currentColor' stroke='none'/>
	<path id='gpPt13' stroke-width='0.222' stroke='currentColor' d='M0,1.330 L1.265,0.411 L0.782,-1.067 L-0.782,-1.076 L-1.265,0.411 z'/>
	<use xlink:href='#gpPt13' id='gpPt14' fill='currentColor' stroke='none'/>
	<filter id='textbox' filterUnits='objectBoundingBox' x='0' y='0' height='1' width='1'>
	  <feFlood flood-color='white' flood-opacity='1' result='bgnd'/>
	  <feComposite in='SourceGraphic' in2='bgnd' operator='atop'/>
	</filter>
	<filter id='greybox' filterUnits='objectBoundingBox' x='0' y='0' height='1' width='1'>
	  <feFlood flood-color='lightgrey' flood-opacity='1' result='grey'/>
	  <feComposite in='SourceGraphic' in2='grey' operator='atop'/>
	</filter>
</defs>
<g fill="none" color="white" stroke="currentColor" stroke-width="1.00" stroke-linecap="butt" stroke-linejoin="miter">
</g>
<g fill="none" color="black" stroke="currentColor" stroke-width="1.00" stroke-linecap="butt" stroke-linejoin="miter">
	<path stroke='black'  d='M62.2,416.0 L71.2,416.0 M615.0,416.0 L606.0,416.0  '/>	<g transform="translate(53.9,420.5)" stroke="none" fill="black" font-family="Arial" font-size="12.00"  text-anchor="end">
		<text><tspan font-family="Arial" > 1600</tspan></text>
	</g>
</g>
<g fill="none" color="black" stroke="currentColor" stroke-width="1.00" stroke-linecap="butt" stroke-linejoin="miter">
	<path stroke='black'  d='M62.2,364.3 L71.2,364.3 M615.0,364.3 L606.0,364.3  '/>	<g transform="translate(53.9,368.8)" stroke="none" fill="black" font-family="Arial" font-size="12.00"  text-anchor="end">
		<text><tspan font-family="Arial" > 1650</tspan></text>
	</g>
</g>
<g fill="none" color="black" stroke="currentColor" stroke-width="1.00" stroke-linecap="butt" stroke-linejoin="miter">
	<path stroke='black'  d='M62.2,312.6 L71.2,312.6 M615.0,312.6 L606.0,312.6  '/>	<g transform="translate(53.9,317.1)" stroke="none" fill="black" font-family="Arial" font-size="12.00"  text-anchor="end">
		<text><tspan font-family="Arial" > 1700</tspan></text>
	</g>
</g>
<g fill="none" color="black" stroke="currentColor" stroke-width="1.00" stroke-linecap="butt" stroke-linejoin="miter">
	<path stroke='black'  d='M62.2,260.9 L71.2,260.9 M615.0,260.9 L606.0,260.9  '/>	<g transform="translate(53.9,265.4)" stroke="none" fill="black" font-family="Arial" font-size="12.00"  text-anchor="end">
		<text><tspan font-family="Arial" > 1750</tspan></text>
	</g>
</g>
<g fill="none" color="black" stroke="currentColor" stroke-width="1.00" stroke-linecap="butt" stroke-linejoin="miter">
	<path stroke='black'  d='M62.2,209.2 L71.2,209.2 M615.0,209.2 L606.0,209.2  '/>	<g transform="translate(53.9,213.7)" stroke="none" fill="black" font-family="Arial" font-size="12.00"  text-anchor="end">
		<text><tspan font-family="Arial" > 1800</tspan></text>
	</g>
</g>
<g fill="none" color="black" stroke="currentColor" stroke-width="1.00" stroke-linecap="butt" stroke-linejoin="miter">
	<path stroke='black'  d='M62.2,157.5 L71.2,157.5 M615.0,157.5 L606.0,157.5  '/>	<g transform="translate(53.9,162.0)" stroke="none" fill="black" font-family="Arial" font-size="12.00"  text-anchor="end">
		<text><tspan font-family="Arial" > 1850</tspan></text>
	</g>
</g>
<g fill="none" color="black" stroke="currentColor" stroke-width="1.00" stroke-linecap="butt" stroke-linejoin="miter">
	<path stroke='black'  d='M62.2,105.8 L71.2,105.8 M615.0,105.8 L606.0,105.8  '/>	<g transform="translate(53.9,110.3)" stroke="none" fill="black" font-family="Arial" font-size="12.00"  text-anchor="end">
		<text><tspan font-family="Arial" > 1900</tspan></text>
	</g>
</g>
<g fill="none" color="black" stroke="currentColor" stroke-width="1.00" stroke-linecap="butt" stroke-linejoin="miter">
	<path stroke='black'  d='M62.2,54.1 L71.2,54.1 M615.0,54.1 L606.0,54.1  '/>	<g transform="translate(53.9,58.6)" stroke="none" fill="black" font-family="Arial" font-size="12.00"  text-anchor="end">
		<text><tspan font-family="Arial" > 1950</tspan></text>
	</g>
</g>
<g fill="none" color="black" stroke="currentColor" stroke-width="1.00" stroke-linecap="butt" stroke-linejoin="miter">
	<path stroke='black'  d='M62.2,416.0 L62.2,407.0 M62.2,54.1 L62.2,63.1  '/>	<g transform="translate(62.2,438.5)" stroke="none" fill="black" font-family="Arial" font-size="12.00"  text-anchor="middle">
		<text><tspan font-family="Arial" > 1</tspan></text>
	</g>
</g>
<g fill="none" color="black" stroke="currentColor" stroke-width="1.00" stroke-linecap="butt" stroke-linejoin="miter">
	<path stroke='black'  d='M123.6,416.0 L123.6,407.0 M123.6,54.1 L123.6,63.1  '/>	<g transform="translate(123.6,438.5)" stroke="none" fill="black" font-family="Arial" font-size="12.00"  text-anchor="middle">
		<text><tspan font-family="Arial" > 2</tspan></text>
	</g>
</g>
<g fill="none" color="black" stroke="currentColor" stroke-width="1.00" stroke-linecap="butt" stroke-linejoin="miter">
	<path stroke='black'  d='M185.0,416.0 L185.0,407.0 M185.0,54.1 L185.0,63.1  '/>	<g transform="translate(185.0,438.5)" stroke="none" fill="black" font-family="Arial" font-size="12.00"  text-anchor="middle">
		<text><tspan font-family="Arial" > 3</tspan></text>
	</g>
</g>
<g fill="none" color="black" stroke="currentColor" stroke-width="1.00" stroke-linecap="butt" stroke-linejoin="miter">
	<path stroke='black'  d='M246.5,416.0 L246.5,407.0 M246.5,54.1 L246.5,63.1  '/>	<g transform="translate(246.5,438.5)" stroke="none" fill="black" font-family="Arial" font-size="12.00"  text-anchor="middle">
		<text><tspan font-family="Arial" > 4</tspan></text>
	</g>
</g>
<g fill="none" color="black" stroke="currentColor" stroke-width="1.00" stroke-linecap="butt" stroke-linejoin="miter">
	<path stroke='black'  d='M307.9,416.0 L307.9,407.0 M307.9,54.1 L307.9,63.1  '/>	<g transform="translate(307.9,438.5)" stroke="none" fill="black" font-family="Arial" font-size="12.00"  text-anchor="middle">
		<text><tspan font-family="Arial" > 5</tspan></text>
	</g>
</g>
<g fill="none" color="black" stroke="currentColor" stroke-width="1.00" stroke-linecap="butt" stroke-linejoin="miter">
	<path stroke='black'  d='M369.3,416.0 L369.3,407.0 M369.3,54.1 L369.3,63.1  '/>	<g transform="translate(369.3,438.5)" stroke="none" fill="black" font-family="Arial" font-size="12.00"  text-anchor="middle">
		<text><tspan font-family="Arial" > 6</tspan></text>
	</g>
</g>
<g fill="none" color="black" stroke="currentColor" stroke-width="1.00" stroke-linecap="butt" stroke-linejoin="miter">
	<path stroke='black'  d='M430.7,416.0 L430.7,407.0 M430.7,54.1 L430.7,63.1  '/>	<g transform="translate(430.7,438.5)" stroke="none" fill="black" font-family="Arial" font-size="12.00"  text-anchor="middle">
		<text><tspan font-family="Arial" > 7</tspan></text>
	</g>
</g>
<g fill="none" color="black" stroke="currentColor" stroke-width="1.00" stroke-linecap="butt" stroke-linejoin="miter">
	<path stroke='black'  d='M492.2,416.0 L492.2,407.0 M492.2,54.1 L492.2,63.1  '/>	<g transform="translate(492.2,438.5)" stroke="none" fill="black" font-family="Arial" font-size="12.00"  text-anchor="middle">
		<text><tspan font-family="Arial" > 8</tspan></text>
	</g>
</g>
<g fill="none" color="black" stroke="currentColor" stroke-width="1.00" stroke-linecap="butt" stroke-linejoin="miter">
	<path stroke='black'  d='M553.6,416.0 L553.6,407.0 M553.6,54.1 L553.6,63.1  '/>	<g transform="translate(553.6,438.5)" stroke="none" fill="black" font-family="Arial" font-size="12.00"  text-anchor="middle">
		<text><tspan font-family="Arial" > 9</tspan></text>
	</g>
</g>
<g fill="none" color="black" stroke="currentColor" stroke-width="1.00" stroke-linecap="butt" stroke-linejoin="miter">
	<path stroke='black'  d='M615.0,416.0 L615.0,407.0 M615.0,54.1 L615.0,63.1  '/>	<g transform="translate(615.0,438.5)" stroke="none" fill="black" font-family="Arial" font-size="12.00"  text-anchor="middle">
		<text><tspan font-family="Arial" > 10</tspan></text>
	</g>
</g>
<g fill="none" color="black" stroke="currentColor" stroke-width="1.00" stroke-linecap="butt" stroke-linejoin="miter">
</g>
<g fill="none" color="black" stroke="currentColor" stroke-width="1.00" stroke-linecap="butt" stroke-linejoin="miter">
	<path stroke='black'  d='M62.2,54.1 L62.2,416.0 L615.0,416.0 L615.0,54.1 L62.2,54.1 Z  '/></g>
<g fill="none" color="black" stroke="currentColor" stroke-width="1.00" stroke-linecap="butt" stroke-linejoin="miter">
	<g transform="translate(338.6,31.6)" stroke="none" fill="black" font-family="Arial" font-size="12.00"  text-anchor="middle">
		<text><tspan font-family="Arial" >bayg29</tspan></text>
	</g>
</g>
	<g id="gnuplot_plot_1" ><title>0,500000</title>
<g fill="none" color="black" stroke="currentColor" stroke-width="1.00" stroke-linecap="butt" stroke-linejoin="miter">
	<g transform="translate(547.9,76.6)" stroke="none" fill="black" font-family="Arial" font-size="12.00"  text-anchor="end">
		<text><tspan font-family="Arial" >0,500000</tspan></text>
	</g>
</g>
<g fill="none" color="black" stroke="currentColor" stroke-width="1.00" stroke-linecap="butt" stroke-linejoin="miter">
	<path stroke='rgb(148,   0, 211)'  d='M556.2,72.1 L598.4,72.1 M62.2,67.5 L123.6,67.5 L185.0,67.5 L246.5,67.5 L307.9,67.5 L369.3,67.5
		L430.7,67.5 L492.2,67.5 L553.6,67.5 L615.0,125.4  '/>	<use xlink:href='#gpPt0' transform='translate(62.2,67.5) scale(4.50)' color='rgb(148,   0, 211)'/>
	<use xlink:href='#gpPt0' transform='translate(123.6,67.5) scale(4.50)' color='rgb(148,   0, 211)'/>
	<use xlink:href='#gpPt0' transform='translate(185.0,67.5) scale(4.50)' color='rgb(148,   0, 211)'/>
	<use xlink:href='#gpPt0' transform='translate(246.5,67.5) scale(4.50)' color='rgb(148,   0, 211)'/>
	<use xlink:href='#gpPt0' transform='translate(307.9,67.5) scale(4.50)' color='rgb(148,   0, 211)'/>
	<use xlink:href='#gpPt0' transform='translate(369.3,67.5) scale(4.50)' color='rgb(148,   0, 211)'/>
	<use xlink:href='#gpPt0' transform='translate(430.7,67.5) scale(4.50)' color='rgb(148,   0, 211)'/>
	<use xlink:href='#gpPt0' transform='translate(492.2,67.5) scale(4.50)' color='rgb(148,   0, 211)'/>
	<use xlink:href='#gpPt0' transform='translate(553.6,67.5) scale(4.50)' color='rgb(148,   0, 211)'/>
	<use xlink:href='#gpPt0' transform='translate(615.0,125.4) scale(4.50)' color='rgb(148,   0, 211)'/>
	<use xlink:href='#gpPt0' transform='translate(577.3,72.1) scale(4.50)' color='rgb(148,   0, 211)'/>
</g>
	</g>
	<g id="gnuplot_plot_2" ><title>0,600000</title>
<g fill="none" color="black" stroke="currentColor" stroke-width="1.00" stroke-linecap="butt" stroke-linejoin="miter">
	<g transform="translate(547.9,94.6)" stroke="none" fill="black" font-family="Arial" font-size="12.00"  text-anchor="end">
		<text><tspan font-family="Arial" >0,600000</tspan></text>
	</g>
</g>
<g fill="none" color="black" stroke="currentColor" stroke-width="1.00" stroke-linecap="butt" stroke-linejoin="miter">
	<path stroke='rgb(  0, 158, 115)'  d='M556.2,90.1 L598.4,90.1 M62.2,67.5 L123.6,130.6 L185.0,67.5 L246.5,67.5 L307.9,67.5 L369.3,67.5
		L430.7,67.5 L492.2,125.4 L553.6,67.5 L615.0,138.9  '/>	<use xlink:href='#gpPt1' transform='translate(62.2,67.5) scale(4.50)' color='rgb(  0, 158, 115)'/>
	<use xlink:href='#gpPt1' transform='translate(123.6,130.6) scale(4.50)' color='rgb(  0, 158, 115)'/>
	<use xlink:href='#gpPt1' transform='translate(185.0,67.5) scale(4.50)' color='rgb(  0, 158, 115)'/>
	<use xlink:href='#gpPt1' transform='translate(246.5,67.5) scale(4.50)' color='rgb(  0, 158, 115)'/>
	<use xlink:href='#gpPt1' transform='translate(307.9,67.5) scale(4.50)' color='rgb(  0, 158, 115)'/>
	<use xlink:href='#gpPt1' transform='translate(369.3,67.5) scale(4.50)' color='rgb(  0, 158, 115)'/>
	<use xlink:href='#gpPt1' transform='translate(430.7,67.5) scale(4.50)' color='rgb(  0, 158, 115)'/>
	<use xlink:href='#gpPt1' transform='translate(492.2,125.4) scale(4.50)' color='rgb(  0, 158, 115)'/>
	<use xlink:href='#gpPt1' transform='translate(553.6,67.5) scale(4.50)' color='rgb(  0, 158, 115)'/>
	<use xlink:href='#gpPt1' transform='translate(615.0,138.9) scale(4.50)' color='rgb(  0, 158, 115)'/>
	<use xlink:href='#gpPt1' transform='translate(577.3,90.1) scale(4.50)' color='rgb(  0, 158, 115)'/>
</g>
	</g>
	<g id="gnuplot_plot_3" ><title>0,750000</title>
<g fill="none" color="black" stroke="currentColor" stroke-width="1.00" stroke-linecap="butt" stroke-linejoin="miter">
	<g transform="translate(547.9,112.6)" stroke="none" fill="black" font-family="Arial" font-size="12.00"  text-anchor="end">
		<text><tspan font-family="Arial" >0,750000</tspan></text>
	</g>
</g>
<g fill="none" color="black" stroke="currentColor" stroke-width="1.00" stroke-linecap="butt" stroke-linejoin="miter">
	<path stroke='rgb( 86, 180, 233)'  d='M556.2,108.1 L598.4,108.1 M62.2,67.5 L123.6,67.5 L185.0,67.5 L246.5,67.5 L307.9,67.5 L369.3,67.5
		L430.7,87.2 L492.2,130.6 L553.6,67.5 L615.0,75.8  '/>	<use xlink:href='#gpPt2' transform='translate(62.2,67.5) scale(4.50)' color='rgb( 86, 180, 233)'/>
	<use xlink:href='#gpPt2' transform='translate(123.6,67.5) scale(4.50)' color='rgb( 86, 180, 233)'/>
	<use xlink:href='#gpPt2' transform='translate(185.0,67.5) scale(4.50)' color='rgb( 86, 180, 233)'/>
	<use xlink:href='#gpPt2' transform='translate(246.5,67.5) scale(4.50)' color='rgb( 86, 180, 233)'/>
	<use xlink:href='#gpPt2' transform='translate(307.9,67.5) scale(4.50)' color='rgb( 86, 180, 233)'/>
	<use xlink:href='#gpPt2' transform='translate(369.3,67.5) scale(4.50)' color='rgb( 86, 180, 233)'/>
	<use xlink:href='#gpPt2' transform='translate(430.7,87.2) scale(4.50)' color='rgb( 86, 180, 233)'/>
	<use xlink:href='#gpPt2' transform='translate(492.2,130.6) scale(4.50)' color='rgb( 86, 180, 233)'/>
	<use xlink:href='#gpPt2' transform='translate(553.6,67.5) scale(4.50)' color='rgb( 86, 180, 233)'/>
	<use xlink:href='#gpPt2' transform='translate(615.0,75.8) scale(4.50)' color='rgb( 86, 180, 233)'/>
	<use xlink:href='#gpPt2' transform='translate(577.3,108.1) scale(4.50)' color='rgb( 86, 180, 233)'/>
</g>
	</g>
	<g id="gnuplot_plot_4" ><title>0,900000</title>
<g fill="none" color="black" stroke="currentColor" stroke-width="1.00" stroke-linecap="butt" stroke-linejoin="miter">
	<g transform="translate(547.9,130.6)" stroke="none" fill="black" font-family="Arial" font-size="12.00"  text-anchor="end">
		<text><tspan font-family="Arial" >0,900000</tspan></text>
	</g>
</g>
<g fill="none" color="black" stroke="currentColor" stroke-width="1.00" stroke-linecap="butt" stroke-linejoin="miter">
	<path stroke='rgb(230, 159,   0)'  d='M556.2,126.1 L598.4,126.1 M62.2,67.5 L123.6,178.2 L185.0,75.8 L246.5,73.7 L307.9,87.2 L369.3,93.4
		L430.7,87.2 L492.2,67.5 L553.6,67.5 L615.0,67.5  '/>	<use xlink:href='#gpPt3' transform='translate(62.2,67.5) scale(4.50)' color='rgb(230, 159,   0)'/>
	<use xlink:href='#gpPt3' transform='translate(123.6,178.2) scale(4.50)' color='rgb(230, 159,   0)'/>
	<use xlink:href='#gpPt3' transform='translate(185.0,75.8) scale(4.50)' color='rgb(230, 159,   0)'/>
	<use xlink:href='#gpPt3' transform='translate(246.5,73.7) scale(4.50)' color='rgb(230, 159,   0)'/>
	<use xlink:href='#gpPt3' transform='translate(307.9,87.2) scale(4.50)' color='rgb(230, 159,   0)'/>
	<use xlink:href='#gpPt3' transform='translate(369.3,93.4) scale(4.50)' color='rgb(230, 159,   0)'/>
	<use xlink:href='#gpPt3' transform='translate(430.7,87.2) scale(4.50)' color='rgb(230, 159,   0)'/>
	<use xlink:href='#gpPt3' transform='translate(492.2,67.5) scale(4.50)' color='rgb(230, 159,   0)'/>
	<use xlink:href='#gpPt3' transform='translate(553.6,67.5) scale(4.50)' color='rgb(230, 159,   0)'/>
	<use xlink:href='#gpPt3' transform='translate(615.0,67.5) scale(4.50)' color='rgb(230, 159,   0)'/>
	<use xlink:href='#gpPt3' transform='translate(577.3,126.1) scale(4.50)' color='rgb(230, 159,   0)'/>
</g>
	</g>
	<g id="gnuplot_plot_5" ><title>0,990000</title>
<g fill="none" color="black" stroke="currentColor" stroke-width="1.00" stroke-linecap="butt" stroke-linejoin="miter">
	<g transform="translate(547.9,148.6)" stroke="none" fill="black" font-family="Arial" font-size="12.00"  text-anchor="end">
		<text><tspan font-family="Arial" >0,990000</tspan></text>
	</g>
</g>
<g fill="none" color="black" stroke="currentColor" stroke-width="1.00" stroke-linecap="butt" stroke-linejoin="miter">
	<path stroke='rgb(240, 228,  66)'  d='M556.2,144.1 L598.4,144.1 M62.2,148.2 L123.6,70.6 L185.0,118.2 L246.5,241.3 L307.9,153.4 L369.3,75.8
		L430.7,152.3 L492.2,136.8 L553.6,75.8 L615.0,152.3  '/>	<use xlink:href='#gpPt4' transform='translate(62.2,148.2) scale(4.50)' color='rgb(240, 228,  66)'/>
	<use xlink:href='#gpPt4' transform='translate(123.6,70.6) scale(4.50)' color='rgb(240, 228,  66)'/>
	<use xlink:href='#gpPt4' transform='translate(185.0,118.2) scale(4.50)' color='rgb(240, 228,  66)'/>
	<use xlink:href='#gpPt4' transform='translate(246.5,241.3) scale(4.50)' color='rgb(240, 228,  66)'/>
	<use xlink:href='#gpPt4' transform='translate(307.9,153.4) scale(4.50)' color='rgb(240, 228,  66)'/>
	<use xlink:href='#gpPt4' transform='translate(369.3,75.8) scale(4.50)' color='rgb(240, 228,  66)'/>
	<use xlink:href='#gpPt4' transform='translate(430.7,152.3) scale(4.50)' color='rgb(240, 228,  66)'/>
	<use xlink:href='#gpPt4' transform='translate(492.2,136.8) scale(4.50)' color='rgb(240, 228,  66)'/>
	<use xlink:href='#gpPt4' transform='translate(553.6,75.8) scale(4.50)' color='rgb(240, 228,  66)'/>
	<use xlink:href='#gpPt4' transform='translate(615.0,152.3) scale(4.50)' color='rgb(240, 228,  66)'/>
	<use xlink:href='#gpPt4' transform='translate(577.3,144.1) scale(4.50)' color='rgb(240, 228,  66)'/>
</g>
	</g>
	<g id="gnuplot_plot_6" ><title>rozw. opt.</title>
<g fill="none" color="black" stroke="currentColor" stroke-width="1.00" stroke-linecap="butt" stroke-linejoin="miter">
	<g transform="translate(547.9,166.6)" stroke="none" fill="black" font-family="Arial" font-size="12.00"  text-anchor="end">
		<text><tspan font-family="Arial" >rozw. opt.</tspan></text>
	</g>
</g>
<g fill="none" color="black" stroke="currentColor" stroke-width="1.00" stroke-linecap="butt" stroke-linejoin="miter">
	<path stroke='rgb(  0, 114, 178)'  d='M556.2,162.1 L598.4,162.1 M62.2,405.7 L123.6,405.7 L185.0,405.7 L246.5,405.7 L307.9,405.7 L369.3,405.7
		L430.7,405.7 L492.2,405.7 L553.6,405.7 L615.0,405.7  '/></g>
	</g>
<g fill="none" color="white" stroke="rgb(  0, 114, 178)" stroke-width="2.00" stroke-linecap="butt" stroke-linejoin="miter">
</g>
<g fill="none" color="black" stroke="currentColor" stroke-width="2.00" stroke-linecap="butt" stroke-linejoin="miter">
</g>
<g fill="none" color="black" stroke="black" stroke-width="1.00" stroke-linecap="butt" stroke-linejoin="miter">
</g>
<g fill="none" color="black" stroke="currentColor" stroke-width="1.00" stroke-linecap="butt" stroke-linejoin="miter">
	<path stroke='black'  d='M62.2,54.1 L62.2,416.0 L615.0,416.0 L615.0,54.1 L62.2,54.1 Z  '/></g>
<g fill="none" color="black" stroke="currentColor" stroke-width="1.00" stroke-linecap="butt" stroke-linejoin="miter">
</g>
</g>
</svg>

